…
Let’s start with a for loop

``` r
output = vector("list", length = 100)

for (i in 1:100) {
  
  output[[i]] = sim_mean_sd(samp_size = 30)
  
}

bind_rows(output)
```

    ## # A tibble: 100 x 2
    ##     mean    sd
    ##    <dbl> <dbl>
    ##  1  2.81  3.73
    ##  2  2.77  4.37
    ##  3  3.06  4.00
    ##  4  3.11  4.38
    ##  5  2.22  3.57
    ##  6  2.57  3.61
    ##  7  2.76  4.53
    ##  8  3.65  3.62
    ##  9  3.85  4.09
    ## 10  3.08  3.88
    ## # … with 90 more rows
…
